…
dmat
#> # A tibble: 21,380 × 6
#>    origin destination value_diff dist_type                    dist Distance Ty…¹
#>    <chr>  <chr>            <dbl> <chr>                       <dbl> <chr>        
#>  1 1003.1 1055.1               4 directed_path_length     7844.    Flow Connect…
#>  2 1003.1 1055.1               4 undirected_path_length   7844.    Flow Unconne…
#>  3 1003.1 1055.1               4 prop_shared_catchment       0.528 Shared Catch…
#>  4 1003.1 1055.1               4 prop_shared_logcatchment    0.965 Shared log-C…
#>  5 1017.1 1040.1               1 directed_path_length     1797.    Flow Connect…
#>  6 1017.1 1040.1               1 undirected_path_length   1797.    Flow Unconne…
#>  7 1017.1 1040.1               1 prop_shared_catchment       0.803 Shared Catch…
#>  8 1017.1 1040.1               1 prop_shared_logcatchment    0.987 Shared log-C…
#>  9 1017.1 1003.1               1 directed_path_length     4357.    Flow Connect…
#> 10 1017.1 1003.1               1 undirected_path_length   4357.    Flow Unconne…
#> # … with 21,370 more rows, and abbreviated variable name ¹​`Distance Type`
…
final_attributes
#> # A tibble: 45 × 94
#>    link_id site_id LC_1_iFLS_p…¹ LC_2_…² LC_3_…³ LC_4_…⁴ LC_5_…⁵ LC_6_…⁶ LC_7_…⁷
#>    <chr>   <chr>           <dbl>   <dbl>   <dbl>   <dbl>   <dbl>   <dbl>   <dbl>
#>  1 1124.1  41              0.672       0 1.28e-1  0.107   0.0924       0       0
#>  2 1118.1  1               0.290       0 7.30e-4  0.0662  0.643        0       0
#>  3 103.1   62              0.706       0 1.44e-1  0       0.150        0       0
#>  4 145.1   26              0.413       0 0        0.131   0.456        0       0
#>  5 1091.1  4               0.174       0 4.90e-2  0.0437  0.733        0       0
#>  6 1058.1  7               0.495       0 6.90e-2  0.0254  0.411        0       0
#>  7 1053.1  5               0.594       0 8.35e-2  0.0118  0.311        0       0
#>  8 1079.1  8               0.264       0 5.17e-2  0.0390  0.645        0       0
#>  9 1085.1  66              0.667       0 5.05e-2  0       0.283        0       0
#> 10 1098.1  28              0.462       0 1.96e-2  0.0900  0.428        0       0
#> # … with 35 more rows, 85 more variables: GEO_NAME_CZam_iFLS_prop <dbl>,
#> #   GEO_NAME_CZbg_iFLS_prop <dbl>, GEO_NAME_CZfg_iFLS_prop <dbl>,
#> #   GEO_NAME_CZg_iFLS_prop <dbl>, GEO_NAME_CZig_iFLS_prop <dbl>,
#> #   GEO_NAME_CZlg_iFLS_prop <dbl>, GEO_NAME_CZve_iFLS_prop <dbl>,
#> #   GEO_NAME_Km_iFLS_prop <dbl>, pontsrc_pontsrc_iFLS_prop <dbl>,
#> #   slope_iFLS_mean <dbl>, LC_1_HAiFLS_prop <dbl>, LC_2_HAiFLS_prop <dbl>,
#> #   LC_3_HAiFLS_prop <dbl>, LC_4_HAiFLS_prop <dbl>, LC_5_HAiFLS_prop <dbl>, …
```
…
final_attributes_all
#> # A tibble: 1,206 × 93
#>    link_id LC_1_iFLS_p…¹ LC_2_…² LC_3_…³ LC_4_…⁴ LC_5_…⁵ LC_6_…⁶ LC_7_…⁷ GEO_N…⁸
#>    <chr>           <dbl>   <dbl>   <dbl>   <dbl>   <dbl>   <dbl>   <dbl>   <dbl>
#>  1 7              0            0  0       0.429    0.571 0        0       0     
#>  2 5              0            0  0       0.0834   0.917 0        0       0     
#>  3 1209           0.0584       0  0.0901  0.0798   0.772 0        0       0     
#>  4 1217           0.179        0  0.0540  0.0903   0.677 0        0       0.0112
#>  5 1215           0.0946       0  0.290   0.0729   0.521 0.00754  0.0136  0.101 
#>  6 1              0.0642       0  0.659   0.120    0.157 0        0       0.0488
#>  7 1206           0.254        0  0.303   0.0706   0.373 0        0       0     
#>  8 3              0.755        0  0.0387  0        0.206 0        0       0     
#>  9 1207           0.285        0  0.428   0.104    0.167 0.0162   0       0     
#> 10 33             0.319        0  0.0354  0.138    0.508 0        0       0     
#> # … with 1,196 more rows, 84 more variables: GEO_NAME_CZbg_iFLS_prop <dbl>,
#> #   GEO_NAME_CZfg_iFLS_prop <dbl>, GEO_NAME_CZg_iFLS_prop <dbl>,
#> #   GEO_NAME_CZig_iFLS_prop <dbl>, GEO_NAME_CZlg_iFLS_prop <dbl>,
#> #   GEO_NAME_CZve_iFLS_prop <dbl>, GEO_NAME_Km_iFLS_prop <dbl>,
#> #   pontsrc_pontsrc_iFLS_prop <dbl>, slope_iFLS_mean <dbl>,
#> #   LC_1_HAiFLS_prop <dbl>, LC_2_HAiFLS_prop <dbl>, LC_3_HAiFLS_prop <dbl>,
#> #   LC_4_HAiFLS_prop <dbl>, LC_5_HAiFLS_prop <dbl>, LC_6_HAiFLS_prop <dbl>, …
…
final_attributes_slow
#> # A tibble: 1,206 × 95
#>    link_id distance_we…¹ weigh…² LC_1_…³ LC_1_…⁴ LC_1_…⁵ LC_1_…⁶ LC_1_…⁷ LC_2_…⁸
#>      <dbl> <list>        <list>    <dbl>   <dbl>   <dbl>   <dbl>   <dbl>   <dbl>
#>  1       1 <NULL>        <NULL>   0.0910 0.0205   0.118   0.110   0.0369       0
#>  2       2 <NULL>        <NULL>   0.576  0.800    0.565   0.575   0.718        0
#>  3       3 <NULL>        <NULL>   0.737  0.798    0.763   0.749   0.719        0
#>  4       4 <NULL>        <NULL>   0.866  0.896    0.874   0.866   0.858        0
#>  5       5 <NULL>        <NULL>   0      0        0       0       0            0
#>  6       6 <NULL>        <NULL>   0.132  0.0251   0.150   0.128   0.0558       0
#>  7       7 <NULL>        <NULL>   0      0        0       0       0            0
#>  8       8 <NULL>        <NULL>   0      0        0       0       0            0
#>  9       9 <NULL>        <NULL>   0.228  0.371    0.220   0.230   0.288        0
#> 10      10 <NULL>        <NULL>   0.0624 0.00905  0.0650  0.0650  0.0116       0
#> # … with 1,196 more rows, 86 more variables: LC_2_HAiFLO_prop <dbl>,
#> #   LC_2_lumped_prop <dbl>, LC_2_iFLS_prop <dbl>, LC_2_HAiFLS_prop <dbl>,
#> #   LC_3_iFLO_prop <dbl>, LC_3_HAiFLO_prop <dbl>, LC_3_lumped_prop <dbl>,
#> #   LC_3_iFLS_prop <dbl>, LC_3_HAiFLS_prop <dbl>, LC_4_iFLO_prop <dbl>,
#> #   LC_4_HAiFLO_prop <dbl>, LC_4_lumped_prop <dbl>, LC_4_iFLS_prop <dbl>,
#> #   LC_4_HAiFLS_prop <dbl>, LC_5_iFLO_prop <dbl>, LC_5_HAiFLO_prop <dbl>,
#> #   LC_5_lumped_prop <dbl>, LC_5_iFLS_prop <dbl>, LC_5_HAiFLS_prop <dbl>, …
…
prediction_data
#> # A tibble: 1,206 × 138
#>    link_id LC_1_iFLS_p…¹ LC_2_…² LC_3_…³ LC_4_…⁴ LC_5_…⁵ LC_6_…⁶ LC_7_…⁷ GEO_N…⁸
#>    <chr>           <dbl>   <dbl>   <dbl>   <dbl>   <dbl>   <dbl>   <dbl>   <dbl>
#>  1 7              0            0  0       0.429    0.571 0        0       0     
#>  2 5              0            0  0       0.0834   0.917 0        0       0     
#>  3 1209           0.0584       0  0.0901  0.0798   0.772 0        0       0     
#>  4 1217           0.179        0  0.0540  0.0903   0.677 0        0       0.0112
#>  5 1215           0.0946       0  0.290   0.0729   0.521 0.00754  0.0136  0.101 
#>  6 1              0.0642       0  0.659   0.120    0.157 0        0       0.0488
#>  7 1206           0.254        0  0.303   0.0706   0.373 0        0       0     
#>  8 3              0.755        0  0.0387  0        0.206 0        0       0     
#>  9 1207           0.285        0  0.428   0.104    0.167 0.0162   0       0     
#> 10 33             0.319        0  0.0354  0.138    0.508 0        0       0     
#> # … with 1,196 more rows, 129 more variables: GEO_NAME_CZbg_iFLS_prop <dbl>,
#> #   GEO_NAME_CZfg_iFLS_prop <dbl>, GEO_NAME_CZg_iFLS_prop <dbl>,
#> #   GEO_NAME_CZig_iFLS_prop <dbl>, GEO_NAME_CZlg_iFLS_prop <dbl>,
#> #   GEO_NAME_CZve_iFLS_prop <dbl>, GEO_NAME_Km_iFLS_prop <dbl>,
#> #   pontsrc_pontsrc_iFLS_prop <dbl>, slope_iFLS_mean <dbl>,
#> #   LC_1_HAiFLS_prop <dbl>, LC_2_HAiFLS_prop <dbl>, LC_3_HAiFLS_prop <dbl>,
#> #   LC_4_HAiFLS_prop <dbl>, LC_5_HAiFLS_prop <dbl>, LC_6_HAiFLS_prop <dbl>, …
```
…
prediction_tbl<-tibble(
  link_id=prediction_data$link_id) %>% 
  bind_cols(
    predict(final_model,
            data=bake(prep(recip),new_data=prediction_data),
            type ="quantiles",quantiles=c(0.25,0.5,0.75))$predictions %>% 
      as_tibble() %>% 
      setNames(c("p25","p50","p75"))
  ) %>% 
  mutate(`Uncertainty` = p75-p25,
         `Predicted`=p50) 

prediction_tbl
#> # A tibble: 1,206 × 6
#>    link_id   p25   p50   p75 Uncertainty Predicted
#>    <chr>   <dbl> <dbl> <dbl>       <dbl>     <dbl>
#>  1 7           1     2     4           3         2
#>  2 5           1     3     4           3         3
#>  3 1209        1     1     3           2         1
#>  4 1217        1     1     3           2         1
#>  5 1215        3     4     6           3         4
#>  6 1           3     6     8           5         6
#>  7 1206        3     5     8           5         5
#>  8 3           4     8     8           4         8
#>  9 1207        3     6     8           5         6
#> 10 33          3     4     6           3         4
#> # … with 1,196 more rows
…
